0;3;4;0;7;8;10;11;15;16;4;3;0;12;3;4;0;1;2;0;10;5;6;5;6;6;5;0;0;6;5
1;3;4;0;7;8;10;11;15;16;4;3;0;12;3;4;0;1;2;0;10;5;6;5;6;6;5;5;6;6;5
2;3;4;0;7;8;10;11;15;16;4;3;0;12;3;4;0;1;2;0;10;5;6;5;6;6;5;5;6;6;5
3;3;4;0;7;8;10;11;15;16;4;3;0;12;3;4;0;1;2;0;10;5;6;5;6;6;5;5;6;6;5
4;3;4;0;7;8;10;11;15;16;4;3;0;12;3;4;0;1;2;0;10;5;6;5;6;6;5;5;6;6;5
5;3;4;0;7;8;10;11;15;16;4;3;0;12;3;4;0;1;2;0;10;5;6;5;6;6;5;5;6;6;5
6;3;4;0;7;8;10;11;15;16;4;3;0;12;3;4;0;1;2;0;10;5;6;5;6;6;5;5;6;6;5
7;3;4;0;7;8;10;11;15;16;4;3;0;12;3;4;0;1;2;0;10;5;6;5;6;6;5;6;13;6;5
8;3;4;0;7;8;10;11;15;16;4;3;0;12;3;4;0;1;2;0;10;5;6;5;6;6;5;6;13;6;5
9;3;4;0;7;8;10;11;15;16;4;3;0;12;3;4;0;1;2;0;10;5;6;5;6;6;5;6;13;6;5
10;3;4;0;7;8;10;11;15;16;4;3;0;12;3;4;0;1;2;0;10;5;6;5;6;6;5;6;13;6;5
11;3;4;0;7;8;10;11;15;16;4;3;0;12;3;4;0;1;2;0;10;5;6;5;6;6;5;6;13;6;5
12;3;4;0;7;8;10;11;15;16;4;3;0;12;3;4;0;1;2;0;10;5;6;5;6;6;5;6;13;6;5
13;3;4;0;7;8;10;11;15;16;4;3;0;12;3;4;0;1;2;0;10;5;6;5;6;6;5;6;13;6;5
14;3;4;0;7;8;10;11;15;16;4;3;0;12;3;4;0;1;2;0;10;5;6;5;6;6;5;6;13;6;5
15;3;4;0;7;8;10;11;15;16;4;3;0;12;3;4;0;1;2;0;10;5;6;5;6;6;5;5;20;6;5
16;3;4;0;7;8;10;11;15;16;4;3;0;12;3;4;0;1;2;0;10;5;6;5;6;6;5;5;20;6;5
17;3;4;0;7;8;10;11;15;16;4;3;0;12;3;4;0;1;2;0;10;5;6;5;6;6;5;5;20;6;5
18;3;4;0;7;8;10;11;15;16;4;3;0;12;3;4;0;1;2;0;10;5;6;5;6;6;5;5;20;6;5
19;3;4;0;7;8;10;11;15;16;4;3;0;12;3;4;0;1;2;0;10;5;6;5;6;6;5;5;20;6;5
20;3;4;0;7;8;10;11;15;16;4;3;0;12;3;4;0;1;2;0;10;5;6;5;6;6;5;5;20;6;5
21;3;4;0;7;8;10;11;15;16;4;3;0;12;3;4;0;1;2;0;10;5;6;5;6;6;5;5;20;6;5
22;3;4;0;7;8;10;11;15;16;4;3;0;12;3;4;0;1;2;0;10;5;6;5;6;6;5;5;20;6;5
23;3;4;0;7;8;10;11;15;16;4;3;0;12;3;4;0;1;2;0;10;5;6;5;6;6;5;5;20;6;5
24;3;4;0;7;8;10;11;15;16;4;3;0;12;3;4;0;1;2;0;10;5;6;5;6;6;5;5;20;6;5
